<?xml version="1.0" encoding="UTF-8" standalone="no"?>
<!DOCTYPE svg PUBLIC "-//W3C//DTD SVG 20010904//EN"
"http://www.w3.org/TR/2001/REC-SVG-20010904/DTD/svg10.dtd">
<svg height="94.361" id="svg1" inkscape:version="0.40" sodipodi:docbase="/mnt/donnees/09-Mes_images/Travaux/Travaux vectoriel/pictogrammes/s  cu SVG/Sauvetage et secours" sodipodi:docname="SortieIssueSecours1.svg" sodipodi:version="0.32" width="163.216" xmlns="http://www.w3.org/2000/svg" xmlns:cc="http://web.resource.org/cc/" xmlns:dc="http://purl.org/dc/elements/1.1/" xmlns:inkscape="http://www.inkscape.org/namespaces/inkscape" xmlns:rdf="http://www.w3.org/1999/02/22-rdf-syntax-ns#" xmlns:sodipodi="http://sodipodi.sourceforge.net/DTD/sodipodi-0.dtd" xmlns:xlink="http://www.w3.org/1999/xlink">
  <metadata>
    <rdf:RDF xmlns:cc="http://web.resource.org/cc/" xmlns:dc="http://purl.org/dc/elements/1.1/" xmlns:rdf="http://www.w3.org/1999/02/22-rdf-syntax-ns#">
      <cc:Work rdf:about="">
        <dc:title>sortie issue de secours 1</dc:title>
        <dc:description>sauvetage</dc:description>
        <dc:subject>
          <rdf:Bag>
            <rdf:li></rdf:li>
            <rdf:li>symbol</rdf:li>
            <rdf:li>signs_and_symbols</rdf:li>
          </rdf:Bag>
        </dc:subject>
        <dc:publisher>
          <cc:Agent rdf:about="http://www.openclipart.org">
            <dc:title>yves GUILLOU</dc:title>
          </cc:Agent>
        </dc:publisher>
        <dc:creator>
          <cc:Agent>
            <dc:title>yves GUILLOU</dc:title>
          </cc:Agent>
        </dc:creator>
        <dc:rights>
          <cc:Agent>
            <dc:title>yves GUILLOU</dc:title>
          </cc:Agent>
        </dc:rights>
        <dc:date></dc:date>
        <dc:format>image/svg+xml</dc:format>
        <dc:type rdf:resource="http://purl.org/dc/dcmitype/StillImage"/>
        <cc:license rdf:resource="http://web.resource.org/cc/PublicDomain"/>
        <dc:language>en</dc:language>
      </cc:Work>
      <cc:License rdf:about="http://web.resource.org/cc/PublicDomain">
        <cc:permits rdf:resource="http://web.resource.org/cc/Reproduction"/>
        <cc:permits rdf:resource="http://web.resource.org/cc/Distribution"/>
        <cc:permits rdf:resource="http://web.resource.org/cc/DerivativeWorks"/>
      </cc:License>
    </rdf:RDF>
  </metadata>
  <sodipodi:namedview bordercolor="#666666" borderopacity="1.0" id="base" inkscape:current-layer="svg1" inkscape:cx="65.286401" inkscape:cy="37.744401" inkscape:pageopacity="0.0" inkscape:pageshadow="2" inkscape:window-height="1121" inkscape:window-width="1590" inkscape:window-x="0" inkscape:window-y="0" inkscape:zoom="11.411258" pagecolor="#ffffff"/>
  <defs id="defs2">
    <marker id="ArrowEnd" markerHeight="3" markerUnits="strokeWidth" markerWidth="4" orient="auto" refX="0" refY="5" viewBox="0 0 10 10">
      <path d="M 0 0 L 10 5 L 0 10 z" id="path4"/>
    </marker>
    <marker id="ArrowStart" markerHeight="3" markerUnits="strokeWidth" markerWidth="4" orient="auto" refX="10" refY="5" viewBox="0 0 10 10">
      <path d="M 10 0 L 0 5 L 10 10 z" id="path6"/>
    </marker>
  </defs>
  <g id="g7">
    <g id="g8">
      <path d="M 152.30600,83.404100 L 152.30600,11.388500 L 10.976400,11.388500 L 10.976400,83.404100 L 152.30600,83.404100 z " id="path9" style="fill:#000000;stroke:none"/>
      <path d="M 148.11700,79.261100 L 148.11700,15.099900 L 15.099900,15.099900 L 15.099900,79.261100 L 148.11700,79.261100 z " id="path10" style="fill:#00b200;stroke:#ffffff;stroke-width:2.8812001"/>
    </g>
    <g id="g11">
      <path d="M 116.39400,33.826000 C 119.71500,33.826000 122.40800,30.981800 122.40800,27.473500 C 122.40800,23.964700 119.71500,21.120400 116.39400,21.120400 C 113.07300,21.120400 110.38100,23.964700 110.38100,27.473500 C 110.38100,30.981800 113.07300,33.826000 116.39400,33.826000 z " id="path12" style="fill:#ffffff;stroke:none"/>
      <path d="M 108.35100,44.920700 L 115.79200,44.640000 C 115.79200,44.640000 115.26100,35.936400 116.32400,35.655600 C 117.38700,35.374800 122.43600,32.567200 123.23300,31.163400 L 135.19200,31.724900 L 139.71000,40.709300 L 135.99000,43.516900 L 130.94000,36.217100 L 128.28300,37.340200 L 134.92700,48.570600 C 134.92700,48.570600 135.99000,57.835800 135.45800,59.239600 C 134.92700,60.643400 143.43100,56.432000 145.02600,58.958800 L 144.22800,64.854800 L 129.87700,64.854800 L 130.40900,56.151200 L 124.29700,60.362600 L 123.23300,72.716100 L 117.91800,72.716100 L 117.38700,56.712700 L 124.56200,52.220500 C 124.56200,52.220500 125.62500,51.097500 125.09400,50.255200 C 124.56200,49.412900 122.70200,45.201500 122.70200,45.201500 L 121.37300,49.693700 L 108.88300,50.816700 L 108.35100,44.920700 z " id="path13" style="fill:#ffffff;stroke:none"/>
    </g>
    <path d="M 46.997400,74.571100 L 46.997400,20.265500 L 19.480300,20.265500 L 19.480300,74.571100 L 46.997400,74.571100 z " id="path14" style="fill:#ffffff;stroke:none"/>
    <g id="g15">
      <path d="M 105.12600,48.537400 L 105.12600,45.702500 L 61.645800,45.702500 L 61.645800,48.537400 L 105.12600,48.537400 z " id="path16" style="fill:#ffffff;stroke:#ffffff;stroke-width:3.0000000"/>
      <path d="M 64.357700,40.706900 L 52.477300,47.322100 L 64.357700,53.937800 L 64.357700,40.706900 z " id="path17" style="fill:#ffffff;stroke:#ffffff;stroke-width:3.0000000"/>
    </g>
  </g>
</svg>
